…
``` r
locations = read_csv("d0cc4ba5-9a4d-448c-b268-bfb5e7b71537-LL-meta.xlsx.csv")
```

    Rows: 118 Columns: 7
    ── Column specification ────────────────────────────────────────────────────────
    Delimiter: ","
    chr (3): Name, Connection ID, County
    dbl (4): Road nr, Road km, Lon, Lat

    ℹ Use `spec()` to retrieve the full column specification for this data.
    ℹ Specify the column types or set `show_col_types = FALSE` to quiet this message.

``` r
# # A tibble: 118 × 7
#    Name                   `Connection ID` `Road nr` `Road km` County   Lon   Lat
#    <chr>                  <chr>               <dbl>     <dbl> <chr>  <dbl> <dbl>
#  1 LOO 1_13236 VBV        0cfcf                   1      13.2 Harju…  25.0  59.4
#  2 PRÜGILA RIST 1_17794 … 25785                   1      17.8 Harju…  25.0  59.5
#  3 KODASOO 1_32100 VBV    077a6                   1      32.1 Harju…  25.3  59.4
#  4 VIITNA 1_73241 VBV     67241                   1      73.2 Lääne…  26.0  59.5
#  5 SÄMI 1_109455 VBV      387ad                   1     109.  Lääne…  26.6  59.4
#  6 VARJA 1_146054 VBV     748fe                   1     146.  Ida-V…  27.1  59.4
#  7 KUKRUSE 1_158295 VBV   5e92d                   1     158.  Ida-V…  27.3  59.4
#  8 KONJU 1_176970 VBV     180b3                   1     177.  Ida-V…  27.6  59.4
#  9 SINIMÄE 1_194738 VBV   91e72                   1     195.  Ida-V…  27.9  59.4
# 10 PEETRI 2_7050 VBV      0f55c                   2       7   Harju…  24.8  59.4
# # ℹ 108 more rows
# # ℹ Use `print(n = ...)` to see more rows
```
…
